%YAML 1.1
%TAG !u! tag:unity3d.com,2011:
--- !u!74 &7400000
AnimationClip:
  m_ObjectHideFlags: 0
  m_CorrespondingSourceObject: {fileID: 0}
  m_PrefabInstance: {fileID: 0}
  m_PrefabAsset: {fileID: 0}
  m_Name: Death
  serializedVersion: 6
  m_Legacy: 0
  m_Compressed: 0
  m_UseHighQualityCurve: 1
  m_RotationCurves: []
  m_CompressedRotationCurves: []
  m_EulerCurves: []
  m_PositionCurves: []
  m_ScaleCurves: []
  m_FloatCurves: []
  m_PPtrCurves:
  - curve:
    - time: 0
      value: {fileID: 21300000, guid: 41ce0037bc850f647978595b2ec36e3c, type: 3}
    - time: 0.05
      value: {fileID: 21300000, guid: 47d4a99ffaad66c419430345d844c5a4, type: 3}
    - time: 0.06666667
      value: {fileID: 21300000, guid: d6f0d409268f31e46b8e5c933da05acc, type: 3}
    - time: 0.11666667
      value: {fileID: 21300000, guid: c1707dca850394f4e8ed655e3e0191ab, type: 3}
    - time: 0.13333334
      value: {fileID: 21300000, guid: 37627b3854ef9594189618d1da51f7f6, type: 3}
    - time: 0.16666667
      value: {fileID: 21300000, guid: 9be367f58d771664ebd467123932e63c, type: 3}
    - time: 0.2
      value: {fileID: 21300000, guid: b0b73d7f19c730c459af69c788e1797e, type: 3}
    - time: 0.23333333
      value: {fileID: 21300000, guid: 3a0f2233f1cc622498bfa1a4e25bb3ba, type: 3}
    - time: 0.26666668
      value: {fileID: 21300000, guid: 7394ef44d2396f545917591c25e32767, type: 3}
    - time: 0.3
      value: {fileID: 21300000, guid: 01b04b79bc449b849a5c59a1ebbce39a, type: 3}
    - time: 0.33333334
      value: {fileID: 21300000, guid: 51c339188766fc04c8f9b2d17148869d, type: 3}
    - time: 0.36666667
      value: {fileID: 21300000, guid: f00fb7f67b4dd824391897626d508dbb, type: 3}
    - time: 0.4
      value: {fileID: 21300000, guid: 298dcefb14a421948ab93925aa06dc6f, type: 3}
    - time: 0.43333334
      value: {fileID: 21300000, guid: 8ff59d8a8171f194984f125121259ffe, type: 3}
    - time: 0.46666667
      value: {fileID: 21300000, guid: 199e56bb40bc47949bb2ba10683eed74, type: 3}
    - time: 0.5
      value: {fileID: 21300000, guid: 9a20c82d67bbadc47a5bcdcea3b74d66, type: 3}
    - time: 0.51666665
      value: {fileID: 21300000, guid: 9776259ee269bd6408fae5b83a756fee, type: 3}
    - time: 0.56666666
      value: {fileID: 21300000, guid: 61d6f9db1a8002b439d356530d021d63, type: 3}
    - time: 0.5833333
      value: {fileID: 21300000, guid: 2e0861ef0e250dc4fa688aca3b4242f3, type: 3}
    - time: 0.6333333
      value: {fileID: 21300000, guid: c1a31c0b0e2730c45a26faa4cdbefa15, type: 3}
    attribute: m_Sprite
    path: 
    classID: 212
    script: {fileID: 0}
  m_SampleRate: 60
  m_WrapMode: 0
  m_Bounds:
    m_Center: {x: 0, y: 0, z: 0}
    m_Extent: {x: 0, y: 0, z: 0}
  m_ClipBindingConstant:
    genericBindings:
    - serializedVersion: 2
      path: 0
      attribute: 0
      script: {fileID: 0}
      typeID: 212
      customType: 23
      isPPtrCurve: 1
    pptrCurveMapping:
    - {fileID: 21300000, guid: 41ce0037bc850f647978595b2ec36e3c, type: 3}
    - {fileID: 21300000, guid: 47d4a99ffaad66c419430345d844c5a4, type: 3}
    - {fileID: 21300000, guid: d6f0d409268f31e46b8e5c933da05acc, type: 3}
    - {fileID: 21300000, guid: c1707dca850394f4e8ed655e3e0191ab, type: 3}
    - {fileID: 21300000, guid: 37627b3854ef9594189618d1da51f7f6, type: 3}
    - {fileID: 21300000, guid: 9be367f58d771664ebd467123932e63c, type: 3}
    - {fileID: 21300000, guid: b0b73d7f19c730c459af69c788e1797e, type: 3}
    - {fileID: 21300000, guid: 3a0f2233f1cc622498bfa1a4e25bb3ba, type: 3}
    - {fileID: 21300000, guid: 7394ef44d2396f545917591c25e32767, type: 3}
    - {fileID: 21300000, guid: 01b04b79bc449b849a5c59a1ebbce39a, type: 3}
    - {fileID: 21300000, guid: 51c339188766fc04c8f9b2d17148869d, type: 3}
    - {fileID: 21300000, guid: f00fb7f67b4dd824391897626d508dbb, type: 3}
    - {fileID: 21300000, guid: 298dcefb14a421948ab93925aa06dc6f, type: 3}
    - {fileID: 21300000, guid: 8ff59d8a8171f194984f125121259ffe, type: 3}
    - {fileID: 21300000, guid: 199e56bb40bc47949bb2ba10683eed74, type: 3}
    - {fileID: 21300000, guid: 9a20c82d67bbadc47a5bcdcea3b74d66, type: 3}
    - {fileID: 21300000, guid: 9776259ee269bd6408fae5b83a756fee, type: 3}
    - {fileID: 21300000, guid: 61d6f9db1a8002b439d356530d021d63, type: 3}
    - {fileID: 21300000, guid: 2e0861ef0e250dc4fa688aca3b4242f3, type: 3}
    - {fileID: 21300000, guid: c1a31c0b0e2730c45a26faa4cdbefa15, type: 3}
  m_AnimationClipSettings:
    serializedVersion: 2
    m_AdditiveReferencePoseClip: {fileID: 0}
    m_AdditiveReferencePoseTime: 0
    m_StartTime: 0
    m_StopTime: 0.65
    m_OrientationOffsetY: 0
    m_Level: 0
    m_CycleOffset: 0
    m_HasAdditiveReferencePose: 0
    m_LoopTime: 0
    m_LoopBlend: 0
    m_LoopBlendOrientation: 0
    m_LoopBlendPositionY: 0
    m_LoopBlendPositionXZ: 0
    m_KeepOriginalOrientation: 0
    m_KeepOriginalPositionY: 1
    m_KeepOriginalPositionXZ: 0
    m_HeightFromFeet: 0
    m_Mirror: 0
  m_EditorCurves: []
  m_EulerEditorCurves: []
  m_HasGenericRootTransform: 0
  m_HasMotionFloatCurves: 0
  m_Events:
  - time: 0.6333333
    functionName: DisableAnimator
    data: 
    objectReferenceParameter: {fileID: 0}
    floatParameter: 0
    intParameter: 0
    messageOptions: 0
